# Documentation (for devs)
# -----------------------

myst-parser[linkify]>=0.14,<0.16
sphinx-autobuild==2021.3.14
sphinx-autodoc-typehints>=1.11,<1.13
sphinx-copybutton<1
sphinx-rtd-theme<1
sphinxext-opengraph>=0.4,<1
